<svg xmlns="http://www.w3.org/2000/svg" width="47" height="51" viewBox="0 0 47 51">
  <defs>
    <style>
      .cls-1 {
        fill: #dd3838;
      }

      .cls-1, .cls-2 {
        fill-rule: evenodd;
      }

      .cls-2 {
        fill: #fff;
      }
    </style>
  </defs>
  <path id="Фигура_1" data-name="Фигура 1" class="cls-1" d="M45,25.543q0-3.511,0-7.021a10.278,10.278,0,0,0-5.184-9.383c-4.079-2.454-8.158-4.915-12.3-7.257a9.6,9.6,0,0,0-10.1.058C13.4,4.278,9.425,6.692,5.409,9.03A10.344,10.344,0,0,0,.015,18.623c0,4.642-.019,9.284.006,13.926A10.181,10.181,0,0,0,5.175,41.83c3.827,2.283,7.7,4.49,11.5,6.819a10.231,10.231,0,0,0,11.47.106c3.648-2.208,7.341-4.338,11.029-6.477a10.848,10.848,0,0,0,5.838-10.4C44.944,29.765,45,27.653,45,25.543Z"/>
  <path id="Фигура_21" data-name="Фигура 21" class="cls-2" d="M16.154,40a4.91,4.91,0,0,1-1.5-.2,0.854,0.854,0,0,1-.537-1.052l1.336-4.436A12.456,12.456,0,0,1,9.11,23.6C9.11,16.649,15.117,11,22.5,11s13.39,5.652,13.39,12.6c0,6.795-5.608,12.291-12.8,12.584a0.819,0.819,0,0,1-.344-0.005l-0.042-.01a0.853,0.853,0,0,1,.162-1.685C29.214,34.3,34.184,29.517,34.184,23.6,34.184,17.59,28.943,12.7,22.5,12.7S10.815,17.59,10.815,23.6a10.813,10.813,0,0,0,6.048,9.543,0.853,0.853,0,0,1,.439.959,0.91,0.91,0,0,1-.029.094L16.036,38.3a6.75,6.75,0,0,0,4.179-1.534,0.853,0.853,0,0,1,1.021,1.367A8.458,8.458,0,0,1,16.154,40h0Zm0,0M22.5,21.133H14.937a0.683,0.683,0,0,1,0-1.365H22.5a0.683,0.683,0,0,1,0,1.365h0Zm0,0M26.592,21.5a0.653,0.653,0,0,1-.055.267,0.759,0.759,0,0,1-.147.218,0.639,0.639,0,0,1-.215.147,0.681,0.681,0,0,1-.267.052,0.653,0.653,0,0,1-.486-0.2,0.67,0.67,0,0,1-.192-0.489,3.029,3.029,0,0,1,.251-1.227,3.249,3.249,0,0,1,.681-1,3.2,3.2,0,0,1,1-.679,3.04,3.04,0,0,1,1.22-.248,2.974,2.974,0,0,1,1.219.254,3.3,3.3,0,0,1,1,.685,3.249,3.249,0,0,1,.681,1,3,3,0,0,1,.251,1.213,3.1,3.1,0,0,1-.933,2.245l-1.024.946a1.589,1.589,0,0,0-.521,1.142,0.658,0.658,0,0,1-.679.678,0.669,0.669,0,0,1-.489-0.193,0.652,0.652,0,0,1-.2-0.486,2.909,2.909,0,0,1,.933-2.107l1.024-.953A1.773,1.773,0,0,0,30.18,21.5a1.7,1.7,0,0,0-.144-0.691,1.842,1.842,0,0,0-.959-0.959,1.7,1.7,0,0,0-.691-0.144,1.747,1.747,0,0,0-.7.14,1.846,1.846,0,0,0-.571.382,1.77,1.77,0,0,0-.525,1.272h0Zm0,0,2.72,6.462a0.924,0.924,0,1,1-.271-0.656,0.893,0.893,0,0,1,.271.656h0Zm0,0M22.5,24.133H14.937a0.683,0.683,0,0,1,0-1.365H22.5a0.683,0.683,0,0,1,0,1.365h0Zm0,0,0,3H14.937a0.683,0.683,0,0,1,0-1.365H22.5a0.683,0.683,0,0,1,0,1.365h0Zm0,0"/>
</svg>
