<svg xmlns="http://www.w3.org/2000/svg" width="47" height="51" viewBox="0 0 47 51">
  <defs>
    <style>
      .cls-1 {
        fill: #46c1fa;
      }

      .cls-1, .cls-2 {
        fill-rule: evenodd;
      }

      .cls-2 {
        fill: #fff;
      }
    </style>
  </defs>
  <path id="Фигура_1" data-name="Фигура 1" class="cls-1" d="M46,25.543q0-3.511,0-7.021a10.278,10.278,0,0,0-5.184-9.383c-4.079-2.454-8.158-4.915-12.3-7.257a9.6,9.6,0,0,0-10.1.058C14.4,4.278,10.425,6.692,6.409,9.03a10.344,10.344,0,0,0-5.393,9.592c0,4.642-.019,9.284.006,13.926A10.181,10.181,0,0,0,6.175,41.83c3.827,2.283,7.7,4.49,11.5,6.819a10.231,10.231,0,0,0,11.47.106c3.648-2.208,7.341-4.338,11.029-6.477a10.848,10.848,0,0,0,5.838-10.4C45.944,29.765,46,27.653,46,25.543Z"/>
  <path id="Фигура_12" data-name="Фигура 12" class="cls-2" d="M32.754,23.309q0,4.224,0,8.448a0.792,0.792,0,0,1-.83.859h-3.5a0.785,0.785,0,0,1-.835-0.8c0-.035,0-0.071,0-0.106q0-8.408,0-16.817a0.812,0.812,0,0,1,.492-0.83,0.778,0.778,0,0,1,.3-0.058q1.794-.006,3.587,0a0.782,0.782,0,0,1,.788.821Q32.754,19.065,32.754,23.309ZM31.21,15.6H29.146v15.42h1.9c0.165,0,.165,0,0.165-0.173q0-7.547,0-15.094V15.6ZM20.421,25.825q0-2.973,0-5.945a0.784,0.784,0,0,1,.489-0.789,0.7,0.7,0,0,1,.272-0.056q1.819-.005,3.639,0a0.777,0.777,0,0,1,.758.784c0,0.375,0,.75,0,1.125q0,5.415,0,10.831a0.791,0.791,0,0,1-.629.827,0.8,0.8,0,0,1-.177.016H21.237a0.783,0.783,0,0,1-.816-0.847Q20.42,28.8,20.421,25.825Zm1.553-5.2V31.011h2.056V20.628H21.974ZM18.4,28.041q0,1.867,0,3.734a0.785,0.785,0,0,1-.819.842H14.062a0.786,0.786,0,0,1-.816-0.847q0-3.727,0-7.454a0.787,0.787,0,0,1,.834-0.857h3.51a0.789,0.789,0,0,1,.814.849Q18.4,26.174,18.4,28.041Zm-1.547,2.972V25.07H14.8v5.943h2.061ZM23.005,34.4q4.6,0,9.2,0a0.735,0.735,0,0,1,.717.461,0.784,0.784,0,0,1-.117.863,0.769,0.769,0,0,1-.6.275c-0.034,0-.068,0-0.1,0q-9.109,0-18.218,0a0.8,0.8,0,1,1-.141-1.6c0.043,0,.085,0,0.128,0h9.135Z"/>
</svg>
